%YAML 1.1
%TAG !u! tag:unity3d.com,2011:
--- !u!114 &11400000
MonoBehaviour:
  m_ObjectHideFlags: 0
  m_CorrespondingSourceObject: {fileID: 0}
  m_PrefabInstance: {fileID: 0}
  m_PrefabAsset: {fileID: 0}
  m_GameObject: {fileID: 0}
  m_Enabled: 1
  m_EditorHideFlags: 0
  m_Script: {fileID: 11500000, guid: 5de2e79b0c2ff6b46ba826ed80217301, type: 3}
  m_Name: Green Barrel
  m_EditorClassIdentifier: 
  m_fRadius: 4
  m_fDmg: -10
  m_clr: {r: 0.40279788, g: 0.9056604, b: 0.2007832, a: 1}
