%YAML 1.1
%TAG !u! tag:unity3d.com,2011:
--- !u!21 &2100000
Material:
  serializedVersion: 6
  m_ObjectHideFlags: 0
  m_CorrespondingSourceObject: {fileID: 0}
  m_PrefabInstance: {fileID: 0}
  m_PrefabAsset: {fileID: 0}
  m_Name: fresnel body
  m_Shader: {fileID: 4800000, guid: 00262b50562beb14cbab9b52bced4f9f, type: 3}
  m_ShaderKeywords: 
  m_LightmapFlags: 4
  m_EnableInstancingVariants: 0
  m_DoubleSidedGI: 0
  m_CustomRenderQueue: -1
  stringTagMap: {}
  disabledShaderPasses: []
  m_SavedProperties:
    serializedVersion: 3
    m_TexEnvs:
    - _EnvMapSampler:
        m_Texture: {fileID: 2800000, guid: 763c5d30206d1d54a9b49b3309e37fe1, type: 3}
        m_Scale: {x: 1, y: 1}
        m_Offset: {x: 0, y: 0}
    - _FalloffSampler:
        m_Texture: {fileID: 2800000, guid: cc8f70f2ec571e9478efa98c041cde7b, type: 3}
        m_Scale: {x: 1, y: 1}
        m_Offset: {x: 0, y: 0}
    - _MainTex:
        m_Texture: {fileID: 2800000, guid: f9c6074c5a78e71448f9efd3013cadda, type: 3}
        m_Scale: {x: 1, y: 1}
        m_Offset: {x: 0, y: 0}
    - _NormalMapSampler:
        m_Texture: {fileID: 2800000, guid: 3a3c0acc807e9264ca0b32602a928a9a, type: 3}
        m_Scale: {x: 1, y: 1}
        m_Offset: {x: 0, y: 0}
    - _RimLightSampler:
        m_Texture: {fileID: 2800000, guid: a18067604964b5a4d8fd5552ed0d789e, type: 3}
        m_Scale: {x: 1, y: 1}
        m_Offset: {x: 0, y: 0}
    - _SpecularReflectionSampler:
        m_Texture: {fileID: 2800000, guid: 7ae1142e9b3a72048960dd9561e0e0d9, type: 3}
        m_Scale: {x: 1, y: 1}
        m_Offset: {x: 0, y: 0}
    m_Floats:
    - _EdgeThickness: 0.5
    - _FalloffPower: 0.3
    - _FresnelPwr: 1
    - _SpecularPower: 20
    m_Colors:
    - _Color: {r: 1, g: 1, b: 1, a: 1}
    - _HighlightClr: {r: 1, g: 0.25943398, b: 0.25943398, a: 1}
    - _ShadowColor: {r: 0.8, g: 0.8, b: 1, a: 1}
